[gd_resource type="SpatialMaterial" load_steps=2 format=2]

[ext_resource path="res://assets/textures/grass_texture.png" type="Texture" id=1]

[resource]
albedo_texture = ExtResource( 1 )
metallic_specular = 0.0
uv1_scale = Vector3( 25, 25, 25 )
