[gd_scene load_steps=3 format=2]

[ext_resource path="res://LabeledTexture.tscn" type="PackedScene" id=1]
[ext_resource path="res://IngredientButton.gd" type="Script" id=2]

[node name="IngredientButton" type="Button"]
margin_right = 130.0
margin_bottom = 67.0
rect_min_size = Vector2( 130, 0 )
focus_mode = 0
enabled_focus_mode = 0
script = ExtResource( 2 )
__meta__ = {
"_edit_use_anchors_": false
}

[node name="LabeledTexture" parent="." instance=ExtResource( 1 )]
anchor_right = 1.0
anchor_bottom = 1.0
margin_left = 10.0
margin_top = 10.0
margin_right = -10.0
margin_bottom = -10.0
