[gd_scene load_steps=3 format=2]

[ext_resource path="res://assets/textures/spider_icon.png" type="Texture" id=1]
[ext_resource path="res://LabeledTexture.gd" type="Script" id=2]

[node name="LabeledTexture" type="HBoxContainer"]
anchor_right = 0.033
anchor_bottom = 0.042
margin_right = -0.239998
margin_bottom = -0.240002
mouse_filter = 2
script = ExtResource( 2 )
__meta__ = {
"_edit_use_anchors_": false
}

[node name="TextureRect" type="TextureRect" parent="."]
margin_right = 30.0
margin_bottom = 30.0
rect_min_size = Vector2( 30, 30 )
mouse_filter = 2
size_flags_horizontal = 3
size_flags_vertical = 3
texture = ExtResource( 1 )
expand = true
__meta__ = {
"_edit_use_anchors_": false
}

[node name="Label" type="Label" parent="."]
margin_left = 34.0
margin_top = 8.0
margin_right = 42.0
margin_bottom = 22.0
size_flags_horizontal = 3
size_flags_vertical = 6
text = "5"
align = 1
valign = 1
__meta__ = {
"_edit_use_anchors_": false
}
